sequential/filters/moving_avg/filter1.vcd
$date
	Sun Dec  3 18:41:44 2023
$end
$version
	Icarus Verilog
$end
$timescale
	1ps
$end
$scope module filter1_tb $end
$var wire 12 ! y_n [11:0] $end
$var wire 1 " smp_clk $end
$var reg 1 # clk $end
$var reg 1 $ resetn1 $end
$var reg 1 % resetn2 $end
$var reg 8 & x_n [7:0] $end
$scope module CK1 $end
$var wire 1 # clk $end
$var wire 16 ' fcw [15:0] $end
$var wire 1 $ resetn $end
$var reg 16 ( SW [15:0] $end
$var reg 1 " square $end
$upscope $end
$scope module DUT $end
$var wire 1 " clk $end
$var wire 1 % resetn $end
$var wire 8 ) x_n [7:0] $end
$var wire 12 * y_n [11:0] $end
$var wire 8 + x_n_3 [7:0] $end
$var wire 8 , x_n_2 [7:0] $end
$var wire 8 - x_n_1 [7:0] $end
$var wire 12 . out [11:0] $end
$var wire 12 / S2 [11:0] $end
$var wire 10 0 S1 [9:0] $end
$var wire 10 1 S0 [9:0] $end
$scope module A0 $end
$var wire 8 2 A [7:0] $end
$var wire 10 3 Y [9:0] $end
$var wire 10 4 X [9:0] $end
$var wire 10 5 S [9:0] $end
$var wire 1 6 C9 $end
$var wire 1 7 C8 $end
$var wire 1 8 C7 $end
$var wire 1 9 C6 $end
$var wire 1 : C5 $end
$var wire 1 ; C4 $end
$var wire 1 < C3 $end
$var wire 1 = C2 $end
$var wire 1 > C1 $end
$var wire 1 ? C0 $end
$var wire 8 @ B [7:0] $end
$scope module FA0 $end
$var wire 1 A A $end
$var wire 1 B B $end
$var wire 1 C Cin $end
$var wire 1 ? carry $end
$var wire 1 D sum $end
$var wire 1 E S1 $end
$var wire 1 F C2 $end
$var wire 1 G C1 $end
$scope module HA1 $end
$var wire 1 A a $end
$var wire 1 B b $end
$var wire 1 G carry $end
$var wire 1 E sum $end
$upscope $end
$scope module HA2 $end
$var wire 1 E a $end
$var wire 1 C b $end
$var wire 1 F carry $end
$var wire 1 D sum $end
$upscope $end
$upscope $end
$scope module FA1 $end
$var wire 1 H A $end
$var wire 1 I B $end
$var wire 1 ? Cin $end
$var wire 1 > carry $end
$var wire 1 J sum $end
$var wire 1 K S1 $end
$var wire 1 L C2 $end
$var wire 1 M C1 $end
$scope module HA1 $end
$var wire 1 H a $end
$var wire 1 I b $end
$var wire 1 M carry $end
$var wire 1 K sum $end
$upscope $end
$scope module HA2 $end
$var wire 1 K a $end
$var wire 1 ? b $end
$var wire 1 L carry $end
$var wire 1 J sum $end
$upscope $end
$upscope $end
$scope module FA2 $end
$var wire 1 N A $end
$var wire 1 O B $end
$var wire 1 > Cin $end
$var wire 1 = carry $end
$var wire 1 P sum $end
$var wire 1 Q S1 $end
$var wire 1 R C2 $end
$var wire 1 S C1 $end
$scope module HA1 $end
$var wire 1 N a $end
$var wire 1 O b $end
$var wire 1 S carry $end
$var wire 1 Q sum $end
$upscope $end
$scope module HA2 $end
$var wire 1 Q a $end
$var wire 1 > b $end
$var wire 1 R carry $end
$var wire 1 P sum $end
$upscope $end
$upscope $end
$scope module FA3 $end
$var wire 1 T A $end
$var wire 1 U B $end
$var wire 1 = Cin $end
$var wire 1 < carry $end
$var wire 1 V sum $end
$var wire 1 W S1 $end
$var wire 1 X C2 $end
$var wire 1 Y C1 $end
$scope module HA1 $end
$var wire 1 T a $end
$var wire 1 U b $end
$var wire 1 Y carry $end
$var wire 1 W sum $end
$upscope $end
$scope module HA2 $end
$var wire 1 W a $end
$var wire 1 = b $end
$var wire 1 X carry $end
$var wire 1 V sum $end
$upscope $end
$upscope $end
$scope module FA4 $end
$var wire 1 Z A $end
$var wire 1 [ B $end
$var wire 1 < Cin $end
$var wire 1 ; carry $end
$var wire 1 \ sum $end
$var wire 1 ] S1 $end
$var wire 1 ^ C2 $end
$var wire 1 _ C1 $end
$scope module HA1 $end
$var wire 1 Z a $end
$var wire 1 [ b $end
$var wire 1 _ carry $end
$var wire 1 ] sum $end
$upscope $end
$scope module HA2 $end
$var wire 1 ] a $end
$var wire 1 < b $end
$var wire 1 ^ carry $end
$var wire 1 \ sum $end
$upscope $end
$upscope $end
$scope module FA5 $end
$var wire 1 ` A $end
$var wire 1 a B $end
$var wire 1 ; Cin $end
$var wire 1 : carry $end
$var wire 1 b sum $end
$var wire 1 c S1 $end
$var wire 1 d C2 $end
$var wire 1 e C1 $end
$scope module HA1 $end
$var wire 1 ` a $end
$var wire 1 a b $end
$var wire 1 e carry $end
$var wire 1 c sum $end
$upscope $end
$scope module HA2 $end
$var wire 1 c a $end
$var wire 1 ; b $end
$var wire 1 d carry $end
$var wire 1 b sum $end
$upscope $end
$upscope $end
$scope module FA6 $end
$var wire 1 f A $end
$var wire 1 g B $end
$var wire 1 : Cin $end
$var wire 1 9 carry $end
$var wire 1 h sum $end
$var wire 1 i S1 $end
$var wire 1 j C2 $end
$var wire 1 k C1 $end
$scope module HA1 $end
$var wire 1 f a $end
$var wire 1 g b $end
$var wire 1 k carry $end
$var wire 1 i sum $end
$upscope $end
$scope module HA2 $end
$var wire 1 i a $end
$var wire 1 : b $end
$var wire 1 j carry $end
$var wire 1 h sum $end
$upscope $end
$upscope $end
$scope module FA7 $end
$var wire 1 l A $end
$var wire 1 m B $end
$var wire 1 9 Cin $end
$var wire 1 8 carry $end
$var wire 1 n sum $end
$var wire 1 o S1 $end
$var wire 1 p C2 $end
$var wire 1 q C1 $end
$scope module HA1 $end
$var wire 1 l a $end
$var wire 1 m b $end
$var wire 1 q carry $end
$var wire 1 o sum $end
$upscope $end
$scope module HA2 $end
$var wire 1 o a $end
$var wire 1 9 b $end
$var wire 1 p carry $end
$var wire 1 n sum $end
$upscope $end
$upscope $end
$scope module FA8 $end
$var wire 1 r A $end
$var wire 1 s B $end
$var wire 1 9 Cin $end
$var wire 1 7 carry $end
$var wire 1 t sum $end
$var wire 1 u S1 $end
$var wire 1 v C2 $end
$var wire 1 w C1 $end
$scope module HA1 $end
$var wire 1 r a $end
$var wire 1 s b $end
$var wire 1 w carry $end
$var wire 1 u sum $end
$upscope $end
$scope module HA2 $end
$var wire 1 u a $end
$var wire 1 9 b $end
$var wire 1 v carry $end
$var wire 1 t sum $end
$upscope $end
$upscope $end
$scope module FA9 $end
$var wire 1 x A $end
$var wire 1 y B $end
$var wire 1 9 Cin $end
$var wire 1 6 carry $end
$var wire 1 z sum $end
$var wire 1 { S1 $end
$var wire 1 | C2 $end
$var wire 1 } C1 $end
$scope module HA1 $end
$var wire 1 x a $end
$var wire 1 y b $end
$var wire 1 } carry $end
$var wire 1 { sum $end
$upscope $end
$scope module HA2 $end
$var wire 1 { a $end
$var wire 1 9 b $end
$var wire 1 | carry $end
$var wire 1 z sum $end
$upscope $end
$upscope $end
$upscope $end
$scope module A1 $end
$var wire 10 ~ Y [9:0] $end
$var wire 10 !" X [9:0] $end
$var wire 10 "" S [9:0] $end
$var wire 1 #" C9 $end
$var wire 1 $" C8 $end
$var wire 1 %" C7 $end
$var wire 1 &" C6 $end
$var wire 1 '" C5 $end
$var wire 1 (" C4 $end
$var wire 1 )" C3 $end
$var wire 1 *" C2 $end
$var wire 1 +" C1 $end
$var wire 1 ," C0 $end
$var wire 8 -" B [7:0] $end
$var wire 8 ." A [7:0] $end
$scope module FA0 $end
$var wire 1 /" A $end
$var wire 1 0" B $end
$var wire 1 1" Cin $end
$var wire 1 ," carry $end
$var wire 1 2" sum $end
$var wire 1 3" S1 $end
$var wire 1 4" C2 $end
$var wire 1 5" C1 $end
$scope module HA1 $end
$var wire 1 /" a $end
$var wire 1 0" b $end
$var wire 1 5" carry $end
$var wire 1 3" sum $end
$upscope $end
$scope module HA2 $end
$var wire 1 3" a $end
$var wire 1 1" b $end
$var wire 1 4" carry $end
$var wire 1 2" sum $end
$upscope $end
$upscope $end
$scope module FA1 $end
$var wire 1 6" A $end
$var wire 1 7" B $end
$var wire 1 ," Cin $end
$var wire 1 +" carry $end
$var wire 1 8" sum $end
$var wire 1 9" S1 $end
$var wire 1 :" C2 $end
$var wire 1 ;" C1 $end
$scope module HA1 $end
$var wire 1 6" a $end
$var wire 1 7" b $end
$var wire 1 ;" carry $end
$var wire 1 9" sum $end
$upscope $end
$scope module HA2 $end
$var wire 1 9" a $end
$var wire 1 ," b $end
$var wire 1 :" carry $end
$var wire 1 8" sum $end
$upscope $end
$upscope $end
$scope module FA2 $end
$var wire 1 <" A $end
$var wire 1 =" B $end
$var wire 1 +" Cin $end
$var wire 1 *" carry $end
$var wire 1 >" sum $end
$var wire 1 ?" S1 $end
$var wire 1 @" C2 $end
$var wire 1 A" C1 $end
$scope module HA1 $end
$var wire 1 <" a $end
$var wire 1 =" b $end
$var wire 1 A" carry $end
$var wire 1 ?" sum $end
$upscope $end
$scope module HA2 $end
$var wire 1 ?" a $end
$var wire 1 +" b $end
$var wire 1 @" carry $end
$var wire 1 >" sum $end
$upscope $end
$upscope $end
$scope module FA3 $end
$var wire 1 B" A $end
$var wire 1 C" B $end
$var wire 1 *" Cin $end
$var wire 1 )" carry $end
$var wire 1 D" sum $end
$var wire 1 E" S1 $end
$var wire 1 F" C2 $end
$var wire 1 G" C1 $end
$scope module HA1 $end
$var wire 1 B" a $end
$var wire 1 C" b $end
$var wire 1 G" carry $end
$var wire 1 E" sum $end
$upscope $end
$scope module HA2 $end
$var wire 1 E" a $end
$var wire 1 *" b $end
$var wire 1 F" carry $end
$var wire 1 D" sum $end
$upscope $end
$upscope $end
$scope module FA4 $end
$var wire 1 H" A $end
$var wire 1 I" B $end
$var wire 1 )" Cin $end
$var wire 1 (" carry $end
$var wire 1 J" sum $end
$var wire 1 K" S1 $end
$var wire 1 L" C2 $end
$var wire 1 M" C1 $end
$scope module HA1 $end
$var wire 1 H" a $end
$var wire 1 I" b $end
$var wire 1 M" carry $end
$var wire 1 K" sum $end
$upscope $end
$scope module HA2 $end
$var wire 1 K" a $end
$var wire 1 )" b $end
$var wire 1 L" carry $end
$var wire 1 J" sum $end
$upscope $end
$upscope $end
$scope module FA5 $end
$var wire 1 N" A $end
$var wire 1 O" B $end
$var wire 1 (" Cin $end
$var wire 1 '" carry $end
$var wire 1 P" sum $end
$var wire 1 Q" S1 $end
$var wire 1 R" C2 $end
$var wire 1 S" C1 $end
$scope module HA1 $end
$var wire 1 N" a $end
$var wire 1 O" b $end
$var wire 1 S" carry $end
$var wire 1 Q" sum $end
$upscope $end
$scope module HA2 $end
$var wire 1 Q" a $end
$var wire 1 (" b $end
$var wire 1 R" carry $end
$var wire 1 P" sum $end
$upscope $end
$upscope $end
$scope module FA6 $end
$var wire 1 T" A $end
$var wire 1 U" B $end
$var wire 1 '" Cin $end
$var wire 1 &" carry $end
$var wire 1 V" sum $end
$var wire 1 W" S1 $end
$var wire 1 X" C2 $end
$var wire 1 Y" C1 $end
$scope module HA1 $end
$var wire 1 T" a $end
$var wire 1 U" b $end
$var wire 1 Y" carry $end
$var wire 1 W" sum $end
$upscope $end
$scope module HA2 $end
$var wire 1 W" a $end
$var wire 1 '" b $end
$var wire 1 X" carry $end
$var wire 1 V" sum $end
$upscope $end
$upscope $end
$scope module FA7 $end
$var wire 1 Z" A $end
$var wire 1 [" B $end
$var wire 1 &" Cin $end
$var wire 1 %" carry $end
$var wire 1 \" sum $end
$var wire 1 ]" S1 $end
$var wire 1 ^" C2 $end
$var wire 1 _" C1 $end
$scope module HA1 $end
$var wire 1 Z" a $end
$var wire 1 [" b $end
$var wire 1 _" carry $end
$var wire 1 ]" sum $end
$upscope $end
$scope module HA2 $end
$var wire 1 ]" a $end
$var wire 1 &" b $end
$var wire 1 ^" carry $end
$var wire 1 \" sum $end
$upscope $end
$upscope $end
$scope module FA8 $end
$var wire 1 `" A $end
$var wire 1 a" B $end
$var wire 1 &" Cin $end
$var wire 1 $" carry $end
$var wire 1 b" sum $end
$var wire 1 c" S1 $end
$var wire 1 d" C2 $end
$var wire 1 e" C1 $end
$scope module HA1 $end
$var wire 1 `" a $end
$var wire 1 a" b $end
$var wire 1 e" carry $end
$var wire 1 c" sum $end
$upscope $end
$scope module HA2 $end
$var wire 1 c" a $end
$var wire 1 &" b $end
$var wire 1 d" carry $end
$var wire 1 b" sum $end
$upscope $end
$upscope $end
$scope module FA9 $end
$var wire 1 f" A $end
$var wire 1 g" B $end
$var wire 1 &" Cin $end
$var wire 1 #" carry $end
$var wire 1 h" sum $end
$var wire 1 i" S1 $end
$var wire 1 j" C2 $end
$var wire 1 k" C1 $end
$scope module HA1 $end
$var wire 1 f" a $end
$var wire 1 g" b $end
$var wire 1 k" carry $end
$var wire 1 i" sum $end
$upscope $end
$scope module HA2 $end
$var wire 1 i" a $end
$var wire 1 &" b $end
$var wire 1 j" carry $end
$var wire 1 h" sum $end
$upscope $end
$upscope $end
$upscope $end
$scope module A2 $end
$var wire 10 l" A [9:0] $end
$var wire 10 m" B [9:0] $end
$var wire 12 n" Y [11:0] $end
$var wire 12 o" X [11:0] $end
$var wire 12 p" S [11:0] $end
$var wire 1 q" C9 $end
$var wire 1 r" C8 $end
$var wire 1 s" C7 $end
$var wire 1 t" C6 $end
$var wire 1 u" C5 $end
$var wire 1 v" C4 $end
$var wire 1 w" C3 $end
$var wire 1 x" C2 $end
$var wire 1 y" C11 $end
$var wire 1 z" C10 $end
$var wire 1 {" C1 $end
$var wire 1 |" C0 $end
$scope module FA0 $end
$var wire 1 }" A $end
$var wire 1 ~" B $end
$var wire 1 !# Cin $end
$var wire 1 |" carry $end
$var wire 1 "# sum $end
$var wire 1 ## S1 $end
$var wire 1 $# C2 $end
$var wire 1 %# C1 $end
$scope module HA1 $end
$var wire 1 }" a $end
$var wire 1 ~" b $end
$var wire 1 %# carry $end
$var wire 1 ## sum $end
$upscope $end
$scope module HA2 $end
$var wire 1 ## a $end
$var wire 1 !# b $end
$var wire 1 $# carry $end
$var wire 1 "# sum $end
$upscope $end
$upscope $end
$scope module FA1 $end
$var wire 1 &# A $end
$var wire 1 '# B $end
$var wire 1 |" Cin $end
$var wire 1 {" carry $end
$var wire 1 (# sum $end
$var wire 1 )# S1 $end
$var wire 1 *# C2 $end
$var wire 1 +# C1 $end
$scope module HA1 $end
$var wire 1 &# a $end
$var wire 1 '# b $end
$var wire 1 +# carry $end
$var wire 1 )# sum $end
$upscope $end
$scope module HA2 $end
$var wire 1 )# a $end
$var wire 1 |" b $end
$var wire 1 *# carry $end
$var wire 1 (# sum $end
$upscope $end
$upscope $end
$scope module FA10 $end
$var wire 1 ,# A $end
$var wire 1 -# B $end
$var wire 1 z" carry $end
$var wire 1 .# sum $end
$var wire 1 /# S1 $end
$var wire 1 q" Cin $end
$var wire 1 0# C2 $end
$var wire 1 1# C1 $end
$scope module HA1 $end
$var wire 1 ,# a $end
$var wire 1 -# b $end
$var wire 1 1# carry $end
$var wire 1 /# sum $end
$upscope $end
$scope module HA2 $end
$var wire 1 /# a $end
$var wire 1 0# carry $end
$var wire 1 .# sum $end
$var wire 1 q" b $end
$upscope $end
$upscope $end
$scope module FA11 $end
$var wire 1 2# A $end
$var wire 1 3# B $end
$var wire 1 z" Cin $end
$var wire 1 y" carry $end
$var wire 1 4# sum $end
$var wire 1 5# S1 $end
$var wire 1 6# C2 $end
$var wire 1 7# C1 $end
$scope module HA1 $end
$var wire 1 2# a $end
$var wire 1 3# b $end
$var wire 1 7# carry $end
$var wire 1 5# sum $end
$upscope $end
$scope module HA2 $end
$var wire 1 5# a $end
$var wire 1 z" b $end
$var wire 1 6# carry $end
$var wire 1 4# sum $end
$upscope $end
$upscope $end
$scope module FA2 $end
$var wire 1 8# A $end
$var wire 1 9# B $end
$var wire 1 {" Cin $end
$var wire 1 x" carry $end
$var wire 1 :# sum $end
$var wire 1 ;# S1 $end
$var wire 1 <# C2 $end
$var wire 1 =# C1 $end
$scope module HA1 $end
$var wire 1 8# a $end
$var wire 1 9# b $end
$var wire 1 =# carry $end
$var wire 1 ;# sum $end
$upscope $end
$scope module HA2 $end
$var wire 1 ;# a $end
$var wire 1 {" b $end
$var wire 1 <# carry $end
$var wire 1 :# sum $end
$upscope $end
$upscope $end
$scope module FA3 $end
$var wire 1 ># A $end
$var wire 1 ?# B $end
$var wire 1 x" Cin $end
$var wire 1 w" carry $end
$var wire 1 @# sum $end
$var wire 1 A# S1 $end
$var wire 1 B# C2 $end
$var wire 1 C# C1 $end
$scope module HA1 $end
$var wire 1 ># a $end
$var wire 1 ?# b $end
$var wire 1 C# carry $end
$var wire 1 A# sum $end
$upscope $end
$scope module HA2 $end
$var wire 1 A# a $end
$var wire 1 x" b $end
$var wire 1 B# carry $end
$var wire 1 @# sum $end
$upscope $end
$upscope $end
$scope module FA4 $end
$var wire 1 D# A $end
$var wire 1 E# B $end
$var wire 1 w" Cin $end
$var wire 1 v" carry $end
$var wire 1 F# sum $end
$var wire 1 G# S1 $end
$var wire 1 H# C2 $end
$var wire 1 I# C1 $end
$scope module HA1 $end
$var wire 1 D# a $end
$var wire 1 E# b $end
$var wire 1 I# carry $end
$var wire 1 G# sum $end
$upscope $end
$scope module HA2 $end
$var wire 1 G# a $end
$var wire 1 w" b $end
$var wire 1 H# carry $end
$var wire 1 F# sum $end
$upscope $end
$upscope $end
$scope module FA5 $end
$var wire 1 J# A $end
$var wire 1 K# B $end
$var wire 1 v" Cin $end
$var wire 1 u" carry $end
$var wire 1 L# sum $end
$var wire 1 M# S1 $end
$var wire 1 N# C2 $end
$var wire 1 O# C1 $end
$scope module HA1 $end
$var wire 1 J# a $end
$var wire 1 K# b $end
$var wire 1 O# carry $end
$var wire 1 M# sum $end
$upscope $end
$scope module HA2 $end
$var wire 1 M# a $end
$var wire 1 v" b $end
$var wire 1 N# carry $end
$var wire 1 L# sum $end
$upscope $end
$upscope $end
$scope module FA6 $end
$var wire 1 P# A $end
$var wire 1 Q# B $end
$var wire 1 u" Cin $end
$var wire 1 t" carry $end
$var wire 1 R# sum $end
$var wire 1 S# S1 $end
$var wire 1 T# C2 $end
$var wire 1 U# C1 $end
$scope module HA1 $end
$var wire 1 P# a $end
$var wire 1 Q# b $end
$var wire 1 U# carry $end
$var wire 1 S# sum $end
$upscope $end
$scope module HA2 $end
$var wire 1 S# a $end
$var wire 1 u" b $end
$var wire 1 T# carry $end
$var wire 1 R# sum $end
$upscope $end
$upscope $end
$scope module FA7 $end
$var wire 1 V# A $end
$var wire 1 W# B $end
$var wire 1 t" Cin $end
$var wire 1 s" carry $end
$var wire 1 X# sum $end
$var wire 1 Y# S1 $end
$var wire 1 Z# C2 $end
$var wire 1 [# C1 $end
$scope module HA1 $end
$var wire 1 V# a $end
$var wire 1 W# b $end
$var wire 1 [# carry $end
$var wire 1 Y# sum $end
$upscope $end
$scope module HA2 $end
$var wire 1 Y# a $end
$var wire 1 t" b $end
$var wire 1 Z# carry $end
$var wire 1 X# sum $end
$upscope $end
$upscope $end
$scope module FA8 $end
$var wire 1 \# A $end
$var wire 1 ]# B $end
$var wire 1 s" Cin $end
$var wire 1 r" carry $end
$var wire 1 ^# sum $end
$var wire 1 _# S1 $end
$var wire 1 `# C2 $end
$var wire 1 a# C1 $end
$scope module HA1 $end
$var wire 1 \# a $end
$var wire 1 ]# b $end
$var wire 1 a# carry $end
$var wire 1 _# sum $end
$upscope $end
$scope module HA2 $end
$var wire 1 _# a $end
$var wire 1 s" b $end
$var wire 1 `# carry $end
$var wire 1 ^# sum $end
$upscope $end
$upscope $end
$scope module FA9 $end
$var wire 1 b# A $end
$var wire 1 c# B $end
$var wire 1 r" Cin $end
$var wire 1 q" carry $end
$var wire 1 d# sum $end
$var wire 1 e# S1 $end
$var wire 1 f# C2 $end
$var wire 1 g# C1 $end
$scope module HA1 $end
$var wire 1 b# a $end
$var wire 1 c# b $end
$var wire 1 g# carry $end
$var wire 1 e# sum $end
$upscope $end
$scope module HA2 $end
$var wire 1 e# a $end
$var wire 1 r" b $end
$var wire 1 f# carry $end
$var wire 1 d# sum $end
$upscope $end
$upscope $end
$upscope $end
$scope module ff0 $end
$var wire 8 h# D [7:0] $end
$var wire 1 " clk $end
$var wire 1 % reset $end
$var reg 8 i# Q [7:0] $end
$upscope $end
$scope module ff1 $end
$var wire 8 j# D [7:0] $end
$var wire 1 " clk $end
$var wire 1 % reset $end
$var reg 8 k# Q [7:0] $end
$upscope $end
$scope module ff2 $end
$var wire 8 l# D [7:0] $end
$var wire 1 " clk $end
$var wire 1 % reset $end
$var reg 8 m# Q [7:0] $end
$upscope $end
$scope module ff4 $end
$var wire 12 n# D [11:0] $end
$var wire 1 " clk $end
$var wire 1 % reset $end
$var reg 12 o# Q [11:0] $end
$upscope $end
$upscope $end
$upscope $end
$enddefinitions $end
#0
$dumpvars
bx o#
bx n#
bx m#
bx l#
bx k#
bx j#
bx i#
bx h#
xg#
xf#
xe#
xd#
xc#
xb#
xa#
x`#
x_#
x^#
x]#
x\#
x[#
xZ#
xY#
xX#
xW#
xV#
xU#
xT#
xS#
xR#
xQ#
xP#
xO#
xN#
xM#
xL#
xK#
xJ#
xI#
xH#
xG#
xF#
xE#
xD#
xC#
xB#
xA#
x@#
x?#
x>#
x=#
x<#
x;#
x:#
x9#
x8#
x7#
x6#
x5#
x4#
x3#
x2#
x1#
x0#
x/#
x.#
x-#
x,#
x+#
x*#
x)#
x(#
x'#
x&#
x%#
x$#
x##
x"#
0!#
x~"
x}"
x|"
x{"
xz"
xy"
xx"
xw"
xv"
xu"
xt"
xs"
xr"
xq"
bx p"
bx o"
bx n"
bx m"
bx l"
xk"
xj"
xi"
xh"
xg"
xf"
xe"
xd"
xc"
xb"
xa"
x`"
x_"
x^"
x]"
x\"
x["
xZ"
xY"
xX"
xW"
xV"
xU"
xT"
xS"
xR"
xQ"
xP"
xO"
xN"
xM"
xL"
xK"
xJ"
xI"
xH"
xG"
xF"
xE"
xD"
xC"
xB"
xA"
x@"
x?"
x>"
x="
x<"
x;"
x:"
x9"
x8"
x7"
x6"
x5"
x4"
x3"
x2"
01"
x0"
x/"
bx ."
bx -"
x,"
x+"
x*"
x)"
x("
x'"
x&"
x%"
x$"
x#"
bx ""
bx !"
bx ~
x}
x|
x{
xz
xy
xx
xw
xv
xu
xt
xs
xr
xq
xp
xo
xn
xm
xl
xk
xj
xi
xh
xg
xf
xe
xd
xc
xb
xa
x`
x_
x^
x]
x\
x[
xZ
xY
xX
xW
xV
xU
xT
xS
xR
xQ
xP
xO
xN
xM
xL
xK
xJ
xI
xH
xG
xF
xE
xD
0C
xB
xA
bx @
x?
x>
x=
x<
x;
x:
x9
x8
x7
x6
bx 5
bx 4
bx 3
bx 2
bx 1
bx 0
bx /
bx .
bx -
bx ,
bx +
bx *
bx )
bx (
b100000000 '
bx &
0%
0$
0#
x"
bx !
$end
#500
b0 (
0"
1#
#1000
0#
0$#
04"
0F
1$
#1500
b100000000 (
1#
#2000
0#
#2500
b1000000000 (
1#
#3000
0#
#3500
b1100000000 (
1#
#4000
0#
#4500
b10000000000 (
1#
#5000
0#
#5500
b10100000000 (
1#
#6000
0#
#6500
b11000000000 (
1#
#7000
0#
#7500
b11100000000 (
1#
#8000
0#
#8500
b100000000000 (
1#
#9000
0#
#9500
b100100000000 (
1#
#10000
0#
#10500
b101000000000 (
1#
#11000
0#
#11500
b101100000000 (
1#
#12000
0#
#12500
b110000000000 (
1#
#13000
0#
#13500
b110100000000 (
1#
#14000
0#
#14500
b111000000000 (
1#
#15000
0#
#15500
b111100000000 (
1#
#16000
0#
#16500
b1000000000000 (
1#
#17000
0#
#17500
b1000100000000 (
1#
#18000
0#
#18500
b1001000000000 (
1#
#19000
0#
#19500
b1001100000000 (
1#
#20000
0#
#20500
b1010000000000 (
1#
#21000
0#
#21500
b1010100000000 (
1#
#22000
0#
#22500
b1011000000000 (
1#
#23000
0#
#23500
b1011100000000 (
1#
#24000
0#
#24500
b1100000000000 (
1#
#25000
0#
#25500
b1100100000000 (
1#
#26000
0#
#26500
b1101000000000 (
1#
#27000
0#
#27500
b1101100000000 (
1#
#28000
0#
#28500
b1110000000000 (
1#
#29000
0#
#29500
b1110100000000 (
1#
#30000
0#
#30500
b1111000000000 (
1#
#31000
0#
#31500
b1111100000000 (
1#
#32000
0#
#32500
b10000000000000 (
1#
#33000
0#
#33500
b10000100000000 (
1#
#34000
0#
#34500
b10001000000000 (
1#
#35000
0#
#35500
b10001100000000 (
1#
#36000
0#
#36500
b10010000000000 (
1#
#37000
0#
#37500
b10010100000000 (
1#
#38000
0#
#38500
b10011000000000 (
1#
#39000
0#
#39500
b10011100000000 (
1#
#40000
0#
#40500
b10100000000000 (
1#
#41000
0#
#41500
b10100100000000 (
1#
#42000
0#
#42500
b10101000000000 (
1#
#43000
0#
#43500
b10101100000000 (
1#
#44000
0#
#44500
b10110000000000 (
1#
#45000
0#
#45500
b10110100000000 (
1#
#46000
0#
#46500
b10111000000000 (
1#
#47000
0#
#47500
b10111100000000 (
1#
#48000
0#
#48500
b11000000000000 (
1#
#49000
0#
#49500
b11000100000000 (
1#
#50000
0#
#50500
b11001000000000 (
1#
#51000
0#
#51500
b11001100000000 (
1#
#52000
0#
#52500
b11010000000000 (
1#
#53000
0#
#53500
b11010100000000 (
1#
#54000
0#
#54500
b11011000000000 (
1#
#55000
0#
#55500
b11011100000000 (
1#
#56000
0#
#56500
b11100000000000 (
1#
#57000
0#
#57500
b11100100000000 (
1#
#58000
0#
#58500
b11101000000000 (
1#
#59000
0#
#59500
b11101100000000 (
1#
#60000
0#
#60500
b11110000000000 (
1#
#61000
0#
#61500
b11110100000000 (
1#
#62000
0#
#62500
b11111000000000 (
1#
#63000
0#
#63500
b11111100000000 (
1#
#64000
0#
#64500
b100000000000000 (
1#
#65000
0#
#65500
b100000100000000 (
1#
#66000
0#
#66500
b100001000000000 (
1#
#67000
0#
#67500
b100001100000000 (
1#
#68000
0#
#68500
b100010000000000 (
1#
#69000
0#
#69500
b100010100000000 (
1#
#70000
0#
#70500
b100011000000000 (
1#
#71000
0#
#71500
b100011100000000 (
1#
#72000
0#
#72500
b100100000000000 (
1#
#73000
0#
#73500
b100100100000000 (
1#
#74000
0#
#74500
b100101000000000 (
1#
#75000
0#
#75500
b100101100000000 (
1#
#76000
0#
#76500
b100110000000000 (
1#
#77000
0#
#77500
b100110100000000 (
1#
#78000
0#
#78500
b100111000000000 (
1#
#79000
0#
#79500
b100111100000000 (
1#
#80000
0#
#80500
b101000000000000 (
1#
#81000
0#
#81500
b101000100000000 (
1#
#82000
0#
#82500
b101001000000000 (
1#
#83000
0#
#83500
b101001100000000 (
1#
#84000
0#
#84500
b101010000000000 (
1#
#85000
0#
#85500
b101010100000000 (
1#
#86000
0#
#86500
b101011000000000 (
1#
#87000
0#
#87500
b101011100000000 (
1#
#88000
0#
#88500
b101100000000000 (
1#
#89000
0#
#89500
b101100100000000 (
1#
#90000
0#
#90500
b101101000000000 (
1#
#91000
0#
#91500
b101101100000000 (
1#
#92000
0#
#92500
b101110000000000 (
1#
#93000
0#
#93500
b101110100000000 (
1#
#94000
0#
#94500
b101111000000000 (
1#
#95000
0#
#95500
b101111100000000 (
1#
#96000
0#
#96500
b110000000000000 (
1#
#97000
0#
#97500
b110000100000000 (
1#
#98000
0#
#98500
b110001000000000 (
1#
#99000
0#
#99500
b110001100000000 (
1#
#100000
0#
#100500
b110010000000000 (
1#
#101000
0#
#101500
b110010100000000 (
1#
#102000
0#
#102500
b110011000000000 (
1#
#103000
0#
#103500
b110011100000000 (
1#
#104000
0#
#104500
b110100000000000 (
1#
#105000
0#
#105500
b110100100000000 (
1#
#106000
0#
#106500
b110101000000000 (
1#
#107000
0#
#107500
b110101100000000 (
1#
#108000
0#
#108500
b110110000000000 (
1#
#109000
0#
#109500
b110110100000000 (
1#
#110000
0#
#110500
b110111000000000 (
1#
#111000
0#
#111500
b110111100000000 (
1#
#112000
0#
#112500
b111000000000000 (
1#
#113000
0#
#113500
b111000100000000 (
1#
#114000
0#
#114500
b111001000000000 (
1#
#115000
0#
#115500
b111001100000000 (
1#
#116000
0#
#116500
b111010000000000 (
1#
#117000
0#
#117500
b111010100000000 (
1#
#118000
0#
#118500
b111011000000000 (
1#
#119000
0#
#119500
b111011100000000 (
1#
#120000
0#
#120500
b111100000000000 (
1#
#121000
0#
#121500
b111100100000000 (
1#
#122000
0#
#122500
b111101000000000 (
1#
#123000
0#
#123500
b111101100000000 (
1#
#124000
0#
#124500
b111110000000000 (
1#
#125000
0#
#125500
b111110100000000 (
1#
#126000
0#
#126500
b111111000000000 (
1#
#127000
0#
#127500
b111111100000000 (
1#
#128000
0#
#128500
b1000000000000000 (
1#
#129000
0#
#129500
0s
0y
0`"
0f"
0a"
0g"
0B
0I
0O
0U
0[
0a
0g
0m
0/"
06"
0<"
0B"
0H"
0N"
0T"
0Z"
00"
07"
0="
0C"
0I"
0O"
0U"
0["
b0 3
b0 -
b0 @
b0 i#
b0 j#
b0 !"
b0 ,
b0 ."
b0 k#
b0 l#
b0 ~
b0 +
b0 -"
b0 m#
b0 !
b0 *
b0 o#
1"
b1000000100000000 (
1#
#130000
0#
#130500
b1000001000000000 (
1#
0w
0}
0c"
0e"
0i"
0k"
0G
0M
0S
0Y
0_
0e
0k
0q
03"
05"
09"
0;"
0?"
0A"
0E"
0G"
0K"
0M"
0Q"
0S"
0W"
0Y"
0]"
0_"
#131000
0#
#131500
b1000001100000000 (
1#
0~"
0d"
0j"
0?
bx0 n"
bx0 0
bx0 ""
bx0 m"
02"
0,"
0:"
0@"
0F"
0L"
0R"
0X"
0^"
#132000
0#
#132500
b1000010000000000 (
1#
0'#
0%#
0$"
0#"
0L
bx00 n"
bx00 0
bx00 ""
bx00 m"
08"
0+"
0*"
0)"
0("
0'"
0&"
0%"
#133000
0#
